<?xml version="1.0" encoding="UTF-8" standalone="no"?>
<svg
   xmlns:osb="http://www.openswatchbook.org/uri/2009/osb"
   xmlns:dc="http://purl.org/dc/elements/1.1/"
   xmlns:cc="http://creativecommons.org/ns#"
   xmlns:rdf="http://www.w3.org/1999/02/22-rdf-syntax-ns#"
   xmlns:svg="http://www.w3.org/2000/svg"
   xmlns="http://www.w3.org/2000/svg"
   xmlns:sodipodi="http://sodipodi.sourceforge.net/DTD/sodipodi-0.dtd"
   xmlns:inkscape="http://www.inkscape.org/namespaces/inkscape"
   sodipodi:docname="launcher_3_foreground.svg"
   inkscape:version="1.0 (4035a4fb49, 2020-05-01)"
   id="svg8"
   version="1.1"
   viewBox="0 0 28.575001 28.575001"
   height="108"
   width="108">
  <defs
     id="defs2">
    <linearGradient
       id="linearGradient897"
       osb:paint="solid">
      <stop
         style="stop-color:#918a6f;stop-opacity:1;"
         offset="0"
         id="stop895" />
    </linearGradient>
  </defs>
  <sodipodi:namedview
     id="base"
     pagecolor="#ffffff"
     bordercolor="#666666"
     borderopacity="1.0"
     inkscape:pageopacity="0.0"
     inkscape:pageshadow="2"
     inkscape:zoom="1.7239274"
     inkscape:cx="227.38896"
     inkscape:cy="172.02145"
     inkscape:document-units="mm"
     inkscape:current-layer="layer1"
     inkscape:document-rotation="0"
     showgrid="false"
     units="px"
     inkscape:snap-page="true"
     inkscape:window-width="1883"
     inkscape:window-height="1052"
     inkscape:window-x="37"
     inkscape:window-y="0"
     inkscape:window-maximized="1" />
  <metadata
     id="metadata5">
    <rdf:RDF>
      <cc:Work
         rdf:about="">
        <dc:format>image/svg+xml</dc:format>
        <dc:type
           rdf:resource="http://purl.org/dc/dcmitype/StillImage" />
        <dc:title />
      </cc:Work>
    </rdf:RDF>
  </metadata>
  <g
     style="display:none"
     inkscape:label="background"
     id="layer2"
     inkscape:groupmode="layer">
    <rect
       style="fill:#008000;stroke-width:0;stop-color:#000000"
       id="rect838"
       width="28.575001"
       height="28.575001"
       x="0"
       y="0" />
  </g>
  <g
     inkscape:label="foreground"
     inkscape:groupmode="layer"
     id="layer1">
    <path
       transform="scale(0.26458333)"
       d="M 58.296875 30.703125 C 52.31034 30.976914 62.943916 39.095014 64.914062 41.685547 C 79.222135 56.176587 93.602207 70.597623 108 85.001953 L 108 75.767578 C 101.53785 69.506249 95.085845 63.233438 88.673828 56.921875 C 79.007565 48.247202 71.045111 37.387067 59.724609 30.757812 C 59.170294 30.702374 58.695977 30.684872 58.296875 30.703125 z M 47.693359 32.324219 C 43.132396 38.044459 33.134902 42.840226 33.044922 50.240234 C 48.893822 66.116057 64.752402 81.981851 80.615234 97.84375 C 84.013324 101.22132 87.395969 104.61529 90.787109 108 L 108 108 L 108 90.742188 C 95.120624 77.863388 82.24032 64.984653 69.361328 52.105469 C 62.136629 45.563673 56.164161 37.269161 47.693359 32.324219 z M 33.720703 56.998047 C 31.132195 56.745519 32.0005 66.760435 35.162109 69.46875 C 47.909478 82.352236 60.711661 95.182043 73.527344 108 L 84.849609 108 C 68.802909 92.011203 52.753544 76.0242 36.732422 60.009766 C 35.440042 57.943289 34.445485 57.068755 33.720703 56.998047 z "
       style="font-variation-settings:normal;vector-effect:none;fill:#007100;fill-opacity:1;stroke-width:2.03306;stroke-linecap:butt;stroke-linejoin:miter;stroke-miterlimit:4;stroke-dasharray:none;stroke-dashoffset:0;stroke-opacity:1;stop-color:#000000"
       id="path4-5" />
    <path
       id="path4-6-7"
       d="m 16.697363,9.1880628 c 1.758981,0.8337692 3.017703,2.5389582 3.211352,4.5615222 h 0.806873 C 20.441253,10.436025 17.670987,7.8325167 14.2875,7.8325167 l -0.355024,0.01614 2.049458,2.0494568 z M 13.335392,8.7738681 c -0.317371,-0.3173697 -0.828392,-0.3173697 -1.140382,0 L 8.773869,12.195009 c -0.31737,0.317369 -0.31737,0.828389 0,1.140381 l 6.465743,6.465742 c 0.317369,0.31737 0.828389,0.31737 1.140378,0 l 3.421142,-3.421143 c 0.317371,-0.317369 0.317371,-0.828389 0,-1.140379 z M 15.809801,19.230941 9.344058,12.765199 12.7652,9.3440578 19.230942,15.809799 Z M 11.87764,19.386938 C 10.118656,18.558547 8.859935,16.847976 8.666285,14.825413 H 7.859412 c 0.274338,3.31356 3.044601,5.91707 6.428088,5.91707 l 0.355024,-0.01607 -2.049456,-2.049458 z"
       style="fill:#e6e6e6;stroke-width:0.537914" />
  </g>
</svg>
